"Omniva - Parcel machine pickup","Omniva - Parcel machine pickup"
"Code inside HTML comment brackets (&lt;!-- code --&gt;)","Code inside HTML comment brackets (&lt;!-- code --&gt;)"
"Additional shipping price, when such code is found from products short description","Additional shipping price, when such code is found from products short description"
"Add service definition","Add service definition"
"Small parcel price (%1)","Small parcel price (%1)"
"Medium parcel price (%1)","Medium parcel price (%1)"
"Large parcel price (%1)","Large parcel price (%1)"
"Please select a parcel machine","Please select a parcel machine"
"Please select a postal office","Please select a postal office"
"Please select a pickup location","Please select a pickup location"
"Omniva - Parcel terminal pickup","Omniva - Parcel terminal pickup"
"Omniva - Postoffice pickup","Omniva - Postoffice pickup"
"Omniva - Delivery to user address (alternate)","Omniva - Delivery to user address (alternate)"
"Omniva - Delivery to user address","Omniva - Delivery to user address"
"",""
"",""
"",""
"",""
"",""
