"Forgot Your Password?","Unustasid salasõna?"
"Password","Salasõna"
"Sign In","Sisene"
"Register account","Pole kontot, registreeri"
"Sign Up for Newsletter","Jäta mind meelde"
"General Information","Üldandmed"
"Addresses","Aadressid"
"Orders","Tellimused"
"Change picture","Muuda pilti"
"Average price elsewhere","Keskmine hind mujal"
"Price for us","Hind meil"
"Hire purchase","Järelmaks alates"
"Availability","Saadavus"
"Pickup from the store","Järeletulemisega kaup kätte"
"Today","Täna"
"Available immediately","Saadaval kohe"
"Read more about %1's brand","Loe lähemalt kategooriast '%1'"
"Don't know which product to choose?","Ei tea, millist toodet valida?"
"Free <strong %1>%2</strong> or <a %3>online chat</a>","Tasuta infotelefon <strong %1>%2</strong> või <a %3>online vestlus</a>"
"Shopping Cart","Tellimuse vormistamine"
"Checkout","Tellimuse vormistamine"
"Details","Kirjeldus"
"More Information","Konfiguratsioon"
"Reviews","Arvamused"
"Reviews %1","Arvamused"
"Related Products","Sarnased tooted"
"Products described in this article","Artiklis kirjeldatud tooted"
"Remember me","Jäta mind meelde"
"Email","E-posti aadress"
"Log In","Logi sisse"
"Do you have a promotional code?","Sooduskood?"
"Enter a promotional code","Sisesta sooduskood"
"Promotional Code","Sooduskood"
"Secure checkout","Turvaline ostukoht"
"Notebooks is a member of the Estonian E-Commerce Association","Notebooks on Eesti E-Kaubanduse Liidu Liige"
"14-day right of return","14-päevane tagastusõigus"
"Goods ordered from the Internet are subject to a 14-day right of return","Internetist tellitud kaubale kehtib 14-päevane tagastusõigus"
"Encrypted connection","Krüpteeritud ühendus"
"The maximum secure connection between your computer and the e-shop is encrypted with the 256-bit SSL protocol.","Maksimaalselt turvaline ühendus sinu arvuti ja e-poe vahel toimub krüpteeritud 256 bitise SSL protokolliga."
"product","toode"
"Product","Toode"
"Amount","Kogus"
"Price","Hind"
"Payment successful!","Makse õnnestus!"
"Products ordered","Tellitud tooted"
"Order details","Tellimuse andmed"
"Order no","Tellimuse nr"
"Date","Kuupäev"
"Shopping Cart","Ostukorv"
"Discount","Soodustus"
"Shipping","Saatmine"
"Order total","Tellimus kokku"
"Payment","Makse"
"Contacts","Kontaktandmed"
"Name","Nimi"
"Telephone","Telefon"
"Phone Number","Telefon"
"Delivery","Tarnimine"
"Add to Cart","Lisa ostukorvi"
"Price elsewhere","Hind mujal"
"Contact Us","Kontakt"
"Team","Meeskond"
"Send a message","Saada sõnum"
"Message","Sõnum"
"Send","Saada"
"result","tulemust"
"previous","eelmine"
"next","järgmine"
"Description","Kirjeldus"
"filter selected","filtrit valitud"
"Filters","Filtrid"
"remove all filters","eemalda kõik filtrid"
"Close window or press ESC","Sulge aken või vajuta ESC"
"Proceed to Checkout","Ostu vormistama"
"Products locally","Tooteid kohapeal"
"Our price from","Meie hind alates"
"We guarantee the best price in Estonia!","Garanteerime parima hinna Eestis!"
"Look at the store","Vaata poes"
"Look at the brand","Vaata lähemalt"
"Enter your email address to complete the order","Tellimuse vormistamiseks sisestage esmalt oma e-posti aadress"
"We need an email address to send order confirmation email. We keep your data 100% protected.","Vajame e-posti aadressi tellimuse kinnitusmeilide saatmiseks. Hoiame Sinu andmed 100% kaitstud."
"Verify email","Kinnita e-post"
"Order","Tellima"
"Products","Tooted"
"Accessories","Lisaseadmed"
"Search for a keyword...","Otsi märksõna..."
"Shop","Pood"
"Blog","Blogi"
"Contact","Kontakt"
"Category","Kategooria"
"Series","Seeria"
"Series name","Seeria nimetus"
"Model","Mudel"
"You added %1 to your <a href=""%2"">shopping cart</a>.","%1 on lisatud <a href=""%2"">ostukorvi</a>.",module,Magento_Checkout
"You added product %1 to the <a href=""%2"">comparison list</a>.","Toode %1 on <a href=""%2"">lisatud võrdlusesse</a>.",module,Magento_Catalog
"Product added successfully to the comparison. There are <strong>%1</strong> products to compare.","Toode lisatud võrdlusesse. Kokku <strong>%1</strong> toode(t)."
"General information","Üldinfo"
"Thanks for contacting us with your comments and questions. We'll respond to you very soon.","Täname, et saatsite meile oma arvamuse ja küsimused. Vastame lähiajal."
"Are you sure you would like to remove this item from the shopping cart?","Oled kindel et soovid eemaldada toodet ostukorvist?"
"View comparison","Vaata võrdlust"
"You removed product %s from the comparison list.","Toode %s eemaldatud võrdlusest."
"You removed product %1 from the comparison list.","Toode %1 eemaldatud võrdlusest."
"Thanks for contacting us with your comments and questions. We'll respond to you veery soon.","Täname kommentaari eest. Vastame esimesel võimalusel."
"Write your own review","Avalda arvustus"
"Review","Arvustus"
"You submitted your review for moderation.","Arvustus esitatud modereerimisele."
"Go back","Mine tagasi"
"If there is an account associated with %1 you will9 receive an email with a link to reset your password.","Juhul kui %1 on seotud olemasoleva kontoga, saadame meili teel lingi salasõna lähtestamiseks."
"popup message","kordaminek"
"success","kordaminek"
"success","kordaminek",module,Magento_Theme
"success message","teavitus",module,Magento_Theme
"Our Products","Tooted"
"Our Accessories","Lisaseadmed"
"About us","Meist"
"Notebooks","Notebooks"
"Quality goods","Kvaliteetne kaup"
"Only the highest quality machines, plus reliability through our careful double checking.","Ainult kvaliteetseimad masinad, millele lisab töökindlust meie hoolas topeltkontroll."
"The best service","Parim teenindus"
"We consult, research and think about choosing a computer! The doors to our after-sales service will remain open after the warranty period.","Konsulteerime, uurime ja mõtleme kaasa arvuti valikul! Meie järelteeninduse uksed on valla ka peale garantiiaja lõppu."
"A reliable company","Usaldusväärne koht"
"Over 10,000 clients, all from private individuals to companies of all sizes and government agencies. 4.9 stars on Facebook.","Üle 10 000 kliendi, kelle hulgas hulgas kõik eraisikutest igas suuruses firmade ja riigiasutusteni välja. 4,9 tärni Facebookis."
"error message","viga"
"warning message","hoiatus"
"alert message","ettevaatust"
"A safe place to buy","Turvaline ostukoht"
"We use an encrypted connection and keep your information protected.","Kasutame krüpteeritud ühendust ja hoiame Sinu andmed kaitstud."
"Friendly support","Sõbralik klienditeenindus"
"Need help choosing a product or placing an order? Write, call or come visit us!","Vajad abi toote valimisel või tellimuse vormistamisel? Kirjuta, helista või tule külla!"
"Fast shipping","Kiire saatmine"
"Most orders arrive during the next business day! Can be delivered by courier and parcel machine.","Laokaup jõuab sihtkohta tihti juba järgmisel tööpäeval! Saab kulleriga või automaati."
"Tallinn","Tallinn"
"Tartu","Tartu"
"Riga","Riia"
"Technical support","Tehniline tugi"
"Sales","Müük"
"Order received!","Tellimus vastu võetud!"
"Success Page","Edukas tellimus"
"Contact E-mail","E-posti aadress",,
"Shipping Method","Vali tarneviis",module,Magento_Checkout
"Could not complete the payment","Makse sooritamine ebaõnnestus"
"Payment successfully completed","Makse sooritatud"
"%1: Line %2","%1: %2. Rida"
